2016-05-10T11:29:21.941711+00:00 app[web.1]:   File "/app/.heroku/python/lib/python2.7/site-packages/gunicorn/arbiter.py", line 515, in spawn_worker
2016-05-10T11:29:21.941714+00:00 app[web.1]:     self.wsgi = self.app.wsgi()
2016-05-10T11:29:21.941714+00:00 app[web.1]:   File "/app/.heroku/python/lib/python2.7/site-packages/gunicorn/workers/base.py", line 130, in load_wsgi
2016-05-10T11:29:21.941712+00:00 app[web.1]:     worker.init_process()
2016-05-10T11:29:21.941713+00:00 app[web.1]:     self.load_wsgi()
2016-05-10T11:29:21.941712+00:00 app[web.1]:   File "/app/.heroku/python/lib/python2.7/site-packages/gunicorn/workers/base.py", line 122, in init_process
2016-05-10T11:29:21.941715+00:00 app[web.1]:   File "/app/.heroku/python/lib/python2.7/site-packages/gunicorn/app/base.py", line 67, in wsgi
2016-05-10T11:29:21.941715+00:00 app[web.1]:     self.callable = self.load()
2016-05-10T11:29:21.941718+00:00 app[web.1]:   File "/app/.heroku/python/lib/python2.7/site-packages/gunicorn/app/wsgiapp.py", line 52, in load_wsgiapp
2016-05-10T11:29:21.941720+00:00 app[web.1]:     application = get_wsgi_application()
2016-05-10T11:29:21.941718+00:00 app[web.1]:     return util.import_app(self.app_uri)
2016-05-10T11:29:21.941719+00:00 app[web.1]:     __import__(module)
2016-05-10T11:29:21.941720+00:00 app[web.1]:   File "/app/WiseInt/wsgi.py", line 15, in <module>
2016-05-10T11:29:21.941719+00:00 app[web.1]:   File "/app/.heroku/python/lib/python2.7/site-packages/gunicorn/util.py", line 357, in import_app
2016-05-10T11:29:21.941717+00:00 app[web.1]:     return self.load_wsgiapp()
2016-05-10T11:29:21.941716+00:00 app[web.1]:   File "/app/.heroku/python/lib/python2.7/site-packages/gunicorn/app/wsgiapp.py", line 65, in load
2016-05-10T11:29:21.942009+00:00 app[web.1]: [2016-05-10 11:29:21 +0000] [9] [ERROR] Exception in worker process:
2016-05-10T11:29:21.941721+00:00 app[web.1]:   File "/app/.heroku/python/lib/python2.7/site-packages/django/core/wsgi.py", line 13, in get_wsgi_application
2016-05-10T11:29:21.941721+00:00 app[web.1]:     django.setup()
2016-05-10T11:29:21.941722+00:00 app[web.1]:   File "/app/.heroku/python/lib/python2.7/site-packages/django/__init__.py", line 17, in setup
2016-05-10T11:29:21.941724+00:00 app[web.1]:     self._setup(name)
2016-05-10T11:29:21.941724+00:00 app[web.1]:   File "/app/.heroku/python/lib/python2.7/site-packages/django/conf/__init__.py", line 41, in _setup
2016-05-10T11:29:21.941732+00:00 app[web.1]: [2016-05-10 11:29:21 +0000] [10] [INFO] Worker exiting (pid: 10)
2016-05-10T11:29:21.942019+00:00 app[web.1]: Traceback (most recent call last):
2016-05-10T11:29:21.942020+00:00 app[web.1]:   File "/app/.heroku/python/lib/python2.7/site-packages/gunicorn/arbiter.py", line 515, in spawn_worker
2016-05-10T11:29:21.941723+00:00 app[web.1]:   File "/app/.heroku/python/lib/python2.7/site-packages/django/conf/__init__.py", line 55, in __getattr__
2016-05-10T11:29:21.942024+00:00 app[web.1]:   File "/app/.heroku/python/lib/python2.7/site-packages/gunicorn/app/base.py", line 67, in wsgi
2016-05-10T11:29:21.942025+00:00 app[web.1]:   File "/app/.heroku/python/lib/python2.7/site-packages/gunicorn/app/wsgiapp.py", line 65, in load
2016-05-10T11:29:21.941723+00:00 app[web.1]:     configure_logging(settings.LOGGING_CONFIG, settings.LOGGING)
2016-05-10T11:29:21.942025+00:00 app[web.1]:     return self.load_wsgiapp()
2016-05-10T11:29:21.941725+00:00 app[web.1]:     % (desc, ENVIRONMENT_VARIABLE))
2016-05-10T11:29:21.941726+00:00 app[web.1]: ImproperlyConfigured: Requested setting LOGGING_CONFIG, but settings are not configured. You must either define the environment variable DJANGO_SETTINGS_MODULE or call settings.configure() before accessing settings.
2016-05-10T11:29:21.942023+00:00 app[web.1]:     self.wsgi = self.app.wsgi()
2016-05-10T11:29:21.942024+00:00 app[web.1]:     self.callable = self.load()
2016-05-10T11:29:21.942021+00:00 app[web.1]:   File "/app/.heroku/python/lib/python2.7/site-packages/gunicorn/workers/base.py", line 122, in init_process
2016-05-10T11:29:21.942021+00:00 app[web.1]:     worker.init_process()
2016-05-10T11:29:21.942022+00:00 app[web.1]:     self.load_wsgi()
2016-05-10T11:29:21.942026+00:00 app[web.1]:   File "/app/.heroku/python/lib/python2.7/site-packages/gunicorn/app/wsgiapp.py", line 52, in load_wsgiapp
2016-05-10T11:29:21.942027+00:00 app[web.1]:   File "/app/.heroku/python/lib/python2.7/site-packages/gunicorn/util.py", line 357, in import_app
2016-05-10T11:29:21.942026+00:00 app[web.1]:     return util.import_app(self.app_uri)
2016-05-10T11:29:21.942028+00:00 app[web.1]:   File "/app/WiseInt/wsgi.py", line 15, in <module>
2016-05-10T11:29:21.942023+00:00 app[web.1]:   File "/app/.heroku/python/lib/python2.7/site-packages/gunicorn/workers/base.py", line 130, in load_wsgi
2016-05-10T11:29:21.942029+00:00 app[web.1]:   File "/app/.heroku/python/lib/python2.7/site-packages/django/core/wsgi.py", line 13, in get_wsgi_application
2016-05-10T11:29:21.942030+00:00 app[web.1]:   File "/app/.heroku/python/lib/python2.7/site-packages/django/__init__.py", line 17, in setup
2016-05-10T11:29:21.942027+00:00 app[web.1]:     __import__(module)
2016-05-10T11:29:21.942029+00:00 app[web.1]:     application = get_wsgi_application()
2016-05-10T11:29:21.942032+00:00 app[web.1]:   File "/app/.heroku/python/lib/python2.7/site-packages/django/conf/__init__.py", line 55, in __getattr__
2016-05-10T11:29:21.942030+00:00 app[web.1]:     django.setup()
2016-05-10T11:29:21.942032+00:00 app[web.1]:     self._setup(name)
2016-05-10T11:29:21.942033+00:00 app[web.1]:   File "/app/.heroku/python/lib/python2.7/site-packages/django/conf/__init__.py", line 41, in _setup
2016-05-10T11:29:21.942031+00:00 app[web.1]:     configure_logging(settings.LOGGING_CONFIG, settings.LOGGING)
2016-05-10T11:29:21.942033+00:00 app[web.1]:     % (desc, ENVIRONMENT_VARIABLE))
2016-05-10T11:29:21.942039+00:00 app[web.1]: Traceback (most recent call last):
2016-05-10T11:29:21.942034+00:00 app[web.1]: ImproperlyConfigured: Requested setting LOGGING_CONFIG, but settings are not configured. You must either define the environment variable DJANGO_SETTINGS_MODULE or call settings.configure() before accessing settings.
2016-05-10T11:29:21.942040+00:00 app[web.1]:     worker.init_process()
2016-05-10T11:29:21.942041+00:00 app[web.1]:   File "/app/.heroku/python/lib/python2.7/site-packages/gunicorn/workers/base.py", line 130, in load_wsgi
2016-05-10T11:29:21.942039+00:00 app[web.1]:   File "/app/.heroku/python/lib/python2.7/site-packages/gunicorn/arbiter.py", line 515, in spawn_worker
2016-05-10T11:29:21.942040+00:00 app[web.1]:     self.load_wsgi()
2016-05-10T11:29:21.942041+00:00 app[web.1]:     self.wsgi = self.app.wsgi()
2016-05-10T11:29:21.942040+00:00 app[web.1]:   File "/app/.heroku/python/lib/python2.7/site-packages/gunicorn/workers/base.py", line 122, in init_process
2016-05-10T11:29:21.942042+00:00 app[web.1]:     self.callable = self.load()
2016-05-10T11:29:21.942042+00:00 app[web.1]:   File "/app/.heroku/python/lib/python2.7/site-packages/gunicorn/app/wsgiapp.py", line 65, in load
2016-05-10T11:29:21.942042+00:00 app[web.1]:   File "/app/.heroku/python/lib/python2.7/site-packages/gunicorn/app/base.py", line 67, in wsgi
2016-05-10T11:29:21.942043+00:00 app[web.1]:     return self.load_wsgiapp()
2016-05-10T11:29:21.942043+00:00 app[web.1]:     return util.import_app(self.app_uri)
2016-05-10T11:29:21.942044+00:00 app[web.1]:   File "/app/WiseInt/wsgi.py", line 15, in <module>
2016-05-10T11:29:21.942045+00:00 app[web.1]:   File "/app/.heroku/python/lib/python2.7/site-packages/django/core/wsgi.py", line 13, in get_wsgi_application
2016-05-10T11:29:21.942043+00:00 app[web.1]:   File "/app/.heroku/python/lib/python2.7/site-packages/gunicorn/app/wsgiapp.py", line 52, in load_wsgiapp
2016-05-10T11:29:21.942044+00:00 app[web.1]:   File "/app/.heroku/python/lib/python2.7/site-packages/gunicorn/util.py", line 357, in import_app
2016-05-10T11:29:21.942045+00:00 app[web.1]:     application = get_wsgi_application()
2016-05-10T11:29:21.942044+00:00 app[web.1]:     __import__(module)
2016-05-10T11:29:21.942094+00:00 app[web.1]:     django.setup()
2016-05-10T11:29:21.942096+00:00 app[web.1]:   File "/app/.heroku/python/lib/python2.7/site-packages/django/__init__.py", line 17, in setup
2016-05-10T11:29:21.942096+00:00 app[web.1]:     configure_logging(settings.LOGGING_CONFIG, settings.LOGGING)
2016-05-10T11:29:21.942097+00:00 app[web.1]:   File "/app/.heroku/python/lib/python2.7/site-packages/django/conf/__init__.py", line 55, in __getattr__
2016-05-10T11:29:21.942097+00:00 app[web.1]:     self._setup(name)
2016-05-10T11:29:21.942098+00:00 app[web.1]:   File "/app/.heroku/python/lib/python2.7/site-packages/django/conf/__init__.py", line 41, in _setup
2016-05-10T11:29:21.942099+00:00 app[web.1]:     % (desc, ENVIRONMENT_VARIABLE))
2016-05-10T11:29:21.942099+00:00 app[web.1]: ImproperlyConfigured: Requested setting LOGGING_CONFIG, but settings are not configured. You must either define the environment variable DJANGO_SETTINGS_MODULE or call settings.configure() before accessing settings.
2016-05-10T11:29:21.942141+00:00 app[web.1]: [2016-05-10 11:29:21 +0000] [9] [INFO] Worker exiting (pid: 9)
2016-05-10T11:29:21.964616+00:00 app[web.1]: [2016-05-10 11:29:21 +0000] [3] [INFO] Shutting down: Master
2016-05-10T11:29:21.964721+00:00 app[web.1]: [2016-05-10 11:29:21 +0000] [3] [INFO] Reason: Worker failed to boot.
2016-05-10T11:29:22.680498+00:00 heroku[web.1]: State changed from starting to crashed
2016-05-10T11:29:22.671097+00:00 heroku[web.1]: Process exited with status 3
2016-05-10T11:29:24.516666+00:00 heroku[router]: at=error code=H10 desc="App crashed" method=GET path="/" host=radiant-fjord-36695.herokuapp.com request_id=e2db2c2b-82cd-4f1f-8027-2a01b551f659 fwd="31.154.34.130" dyno= connect= service= status=503 bytes=
2016-05-10T11:29:28.208375+00:00 heroku[router]: at=error code=H10 desc="App crashed" method=GET path="/" host=radiant-fjord-36695.herokuapp.com request_id=40d0babc-36fc-41e3-8451-e6b4c6f9a3d7 fwd="31.154.34.130" dyno= connect= service= status=503 bytes=
2016-05-10T11:31:32.663435+00:00 heroku[api]: Release v24 created by arielkovler@gmail.com
2016-05-10T11:31:32.838537+00:00 heroku[slug-compiler]: Slug compilation started
2016-05-10T11:31:32.838545+00:00 heroku[slug-compiler]: Slug compilation finished
2016-05-10T11:31:32.663407+00:00 heroku[api]: Deploy c90ba9f by arielkovler@gmail.com
2016-05-10T11:31:33.756273+00:00 heroku[web.1]: State changed from crashed to starting
2016-05-10T11:31:37.087855+00:00 heroku[web.1]: Starting process with command `gunicorn WiseInt.wsgi --log-file -`
2016-05-10T11:31:39.170488+00:00 app[web.1]: [2016-05-10 11:31:39 +0000] [3] [INFO] Starting gunicorn 19.4.5
2016-05-10T11:31:39.170971+00:00 app[web.1]: [2016-05-10 11:31:39 +0000] [3] [INFO] Listening at: http://0.0.0.0:18808 (3)
2016-05-10T11:31:39.171115+00:00 app[web.1]: [2016-05-10 11:31:39 +0000] [3] [INFO] Using worker: sync
2016-05-10T11:31:39.174968+00:00 app[web.1]: [2016-05-10 11:31:39 +0000] [9] [INFO] Booting worker with pid: 9
2016-05-10T11:31:39.222269+00:00 app[web.1]: [2016-05-10 11:31:39 +0000] [10] [INFO] Booting worker with pid: 10
2016-05-10T11:31:40.811474+00:00 heroku[web.1]: State changed from starting to up
2016-05-10T11:31:43.075300+00:00 heroku[router]: at=info method=GET path="/" host=radiant-fjord-36695.herokuapp.com request_id=632a09e6-92df-4f33-860f-ec57125b3ade fwd="31.154.34.130" dyno=web.1 connect=1ms service=61ms status=200 bytes=520
2016-05-10T11:31:43.435994+00:00 heroku[router]: at=info method=GET path="/static/js/jquery-2.2.0.min.js" host=radiant-fjord-36695.herokuapp.com request_id=a48eb45e-a634-4ebb-9515-752c2660b209 fwd="31.154.34.130" dyno=web.1 connect=1ms service=10ms status=200 bytes=85879
2016-05-10T11:31:43.905080+00:00 heroku[router]: at=info method=GET path="/static/js/login.js" host=radiant-fjord-36695.herokuapp.com request_id=8d3c34ea-960e-4d47-b176-7c3f81d83fd9 fwd="31.154.34.130" dyno=web.1 connect=5ms service=4ms status=200 bytes=476
